# Blender MTL File: 'forest_tile.blend'
# Material Count: 29

newmtl Deer_nose
Ns 94.117647
Ka 1.000000 1.000000 1.000000
Kd 0.000000 0.000000 0.000000
Ks 0.500000 0.500000 0.500000
Ke 0.000000 0.000000 0.000000
Ni 1.000000
d 1.000000
illum 2

newmtl Deer_nose.001
Ns 94.117647
Ka 1.000000 1.000000 1.000000
Kd 0.000000 0.000000 0.000000
Ks 0.500000 0.500000 0.500000
Ke 0.000000 0.000000 0.000000
Ni 1.000000
d 1.000000
illum 2

newmtl Material.008
Ns 94.117647
Ka 1.000000 1.000000 1.000000
Kd 0.048575 0.015002 0.003612
Ks 0.500000 0.500000 0.500000
Ke 0.000000 0.000000 0.000000
Ni 1.000000
d 1.000000
illum 2

newmtl Material.009
Ns 94.117647
Ka 1.000000 1.000000 1.000000
Kd 0.041570 0.069707 0.006458
Ks 0.500000 0.500000 0.500000
Ke 0.000000 0.000000 0.000000
Ni 1.000000
d 1.000000
illum 2

newmtl antenes
Ns 94.117647
Ka 1.000000 1.000000 1.000000
Kd 0.640000 0.494963 0.237610
Ks 0.500000 0.500000 0.500000
Ke 0.000000 0.000000 0.000000
Ni 1.000000
d 1.000000
illum 2

newmtl antenes.001
Ns 94.117647
Ka 1.000000 1.000000 1.000000
Kd 0.640000 0.494963 0.237610
Ks 0.500000 0.500000 0.500000
Ke 0.000000 0.000000 0.000000
Ni 1.000000
d 1.000000
illum 2

newmtl bush
Ns 96.078431
Ka 1.000000 1.000000 1.000000
Kd 0.016847 0.063994 0.009650
Ks 0.029624 0.147846 0.022277
Ke 0.000000 0.000000 0.000000
Ni 1.000000
d 1.000000
illum 2

newmtl bush_down
Ns 96.078431
Ka 1.000000 1.000000 1.000000
Kd 0.175959 0.048566 0.022153
Ks 0.500000 0.500000 0.500000
Ke 0.000000 0.000000 0.000000
Ni 1.000000
d 1.000000
illum 2

newmtl deer_sin2
Ns 94.117647
Ka 1.000000 1.000000 1.000000
Kd 0.640000 0.546125 0.429097
Ks 0.500000 0.500000 0.500000
Ke 0.000000 0.000000 0.000000
Ni 1.000000
d 1.000000
illum 2

newmtl deer_sin2.001
Ns 94.117647
Ka 1.000000 1.000000 1.000000
Kd 0.640000 0.546125 0.429097
Ks 0.500000 0.500000 0.500000
Ke 0.000000 0.000000 0.000000
Ni 1.000000
d 1.000000
illum 2

newmtl pine_down
Ns 94.117647
Ka 1.000000 1.000000 1.000000
Kd 0.048575 0.015002 0.003612
Ks 0.500000 0.500000 0.500000
Ke 0.000000 0.000000 0.000000
Ni 1.000000
d 1.000000
illum 2

newmtl pine_down.001
Ns 94.117647
Ka 1.000000 1.000000 1.000000
Kd 0.048575 0.015002 0.003612
Ks 0.500000 0.500000 0.500000
Ke 0.000000 0.000000 0.000000
Ni 1.000000
d 1.000000
illum 2

newmtl pine_top
Ns 94.117647
Ka 1.000000 1.000000 1.000000
Kd 0.041570 0.069707 0.006458
Ks 0.500000 0.500000 0.500000
Ke 0.000000 0.000000 0.000000
Ni 1.000000
d 1.000000
illum 2

newmtl pine_top.001
Ns 94.117647
Ka 1.000000 1.000000 1.000000
Kd 0.041570 0.069707 0.006458
Ks 0.500000 0.500000 0.500000
Ke 0.000000 0.000000 0.000000
Ni 1.000000
d 1.000000
illum 2

newmtl rock
Ns 94.117647
Ka 1.000000 1.000000 1.000000
Kd 0.181267 0.181267 0.181267
Ks 0.136915 0.136915 0.136915
Ke 0.000000 0.000000 0.000000
Ni 1.000000
d 1.000000
illum 2

newmtl rock.001
Ns 94.117647
Ka 1.000000 1.000000 1.000000
Kd 0.181267 0.181267 0.181267
Ks 0.136915 0.136915 0.136915
Ke 0.000000 0.000000 0.000000
Ni 1.000000
d 1.000000
illum 2

newmtl rock.002
Ns 94.117647
Ka 1.000000 1.000000 1.000000
Kd 0.181267 0.181267 0.181267
Ks 0.136915 0.136915 0.136915
Ke 0.000000 0.000000 0.000000
Ni 1.000000
d 1.000000
illum 2

newmtl skin_deer
Ns 94.117647
Ka 1.000000 1.000000 1.000000
Kd 0.091948 0.021464 0.010167
Ks 0.175278 0.157258 0.167236
Ke 0.000000 0.000000 0.000000
Ni 1.000000
d 1.000000
illum 2

newmtl skin_deer.001
Ns 94.117647
Ka 1.000000 1.000000 1.000000
Kd 0.091948 0.021464 0.010167
Ks 0.175278 0.157258 0.167236
Ke 0.000000 0.000000 0.000000
Ni 1.000000
d 1.000000
illum 2

newmtl tile_bottom
Ns 96.078431
Ka 1.000000 1.000000 1.000000
Kd 0.016303 0.007784 0.002355
Ks 0.500000 0.500000 0.500000
Ke 0.000000 0.000000 0.000000
Ni 1.000000
d 1.000000
illum 2

newmtl tile_top
Ns 96.078431
Ka 1.000000 1.000000 1.000000
Kd 0.039453 0.261099 0.004856
Ks 0.059633 0.500000 0.012526
Ke 0.000000 0.000000 0.000000
Ni 1.000000
d 1.000000
illum 2

newmtl tree_1_down
Ns 94.117647
Ka 1.000000 1.000000 1.000000
Kd 0.091948 0.039859 0.011963
Ks 0.092234 0.014341 0.001290
Ke 0.000000 0.000000 0.000000
Ni 1.000000
d 1.000000
illum 2

newmtl tree_1_down.001
Ns 94.117647
Ka 1.000000 1.000000 1.000000
Kd 0.091948 0.039859 0.011963
Ks 0.092234 0.014341 0.001290
Ke 0.000000 0.000000 0.000000
Ni 1.000000
d 1.000000
illum 2

newmtl tree_1_down.002
Ns 94.117647
Ka 1.000000 1.000000 1.000000
Kd 0.091948 0.039859 0.011963
Ks 0.092234 0.014341 0.001290
Ke 0.000000 0.000000 0.000000
Ni 1.000000
d 1.000000
illum 2

newmtl tree_1_leaves
Ns 94.117647
Ka 1.000000 1.000000 1.000000
Kd 0.102319 0.224807 0.010395
Ks 0.054695 0.155406 0.018404
Ke 0.000000 0.000000 0.000000
Ni 1.000000
d 1.000000
illum 2

newmtl tree_1_leaves.001
Ns 94.117647
Ka 1.000000 1.000000 1.000000
Kd 0.102319 0.224807 0.010395
Ks 0.054695 0.155406 0.018404
Ke 0.000000 0.000000 0.000000
Ni 1.000000
d 1.000000
illum 2

newmtl tree_1_leaves.002
Ns 94.117647
Ka 1.000000 1.000000 1.000000
Kd 0.102319 0.224807 0.010395
Ks 0.054695 0.155406 0.018404
Ke 0.000000 0.000000 0.000000
Ni 1.000000
d 1.000000
illum 2

newmtl tree_2_down
Ns 96.078431
Ka 1.000000 1.000000 1.000000
Kd 0.091948 0.039859 0.011963
Ks 0.092234 0.014341 0.001290
Ke 0.000000 0.000000 0.000000
Ni 1.000000
d 1.000000
illum 2

newmtl tree_2_top
Ns 96.078431
Ka 1.000000 1.000000 1.000000
Kd 0.102319 0.224807 0.010395
Ks 0.054695 0.155406 0.018404
Ke 0.000000 0.000000 0.000000
Ni 1.000000
d 1.000000
illum 2
